^C:\USERS\GONZALES\DOCUMENTS\ONEDRIVE\SIU\GRADSCHOOL\CS586IMAGEPROCESSINGANDPATTERNRECOGNITION\PROJECT\SMARTEDGEROUTING\SMARTEDGEROUTING\SMARTEDGEROUTING.CPP
C:\USERS\GONZALES\DOCUMENTS\ONEDRIVE\SIU\GRADSCHOOL\CS586IMAGEPROCESSINGANDPATTERNRECOGNITION\PROJECT\SMARTEDGEROUTING\SMARTEDGEROUTING\RELEASE\SMARTEDGEROUTING.OBJ
C:\USERS\GONZALES\DOCUMENTS\ONEDRIVE\SIU\GRADSCHOOL\CS586IMAGEPROCESSINGANDPATTERNRECOGNITION\PROJECT\SMARTEDGEROUTING\SMARTEDGEROUTING\RELEASE\VC100.PDB
